…
Note the `<-` operator is used to assign data to a name (the thing on
the left of the `<-` is the name, the thing on the right the data).
Because it is so often used the shortcut `Alt -` is handy.

``` r
# create tibble versions of the mtcars and iris tables
tib_mtcars <- as_tibble(mtcars)
tib_iris <- as_tibble(iris)

# See how mtcars prints now...
tib_mtcars
#> # A tibble: 32 x 11
#>      mpg   cyl  disp    hp  drat    wt  qsec    vs    am  gear  carb
#>    <dbl> <dbl> <dbl> <dbl> <dbl> <dbl> <dbl> <dbl> <dbl> <dbl> <dbl>
#>  1  21       6  160    110  3.9   2.62  16.5     0     1     4     4
#>  2  21       6  160    110  3.9   2.88  17.0     0     1     4     4
#>  3  22.8     4  108     93  3.85  2.32  18.6     1     1     4     1
#>  4  21.4     6  258    110  3.08  3.22  19.4     1     0     3     1
#>  5  18.7     8  360    175  3.15  3.44  17.0     0     0     3     2
#>  6  18.1     6  225    105  2.76  3.46  20.2     1     0     3     1
#>  7  14.3     8  360    245  3.21  3.57  15.8     0     0     3     4
#>  8  24.4     4  147.    62  3.69  3.19  20       1     0     4     2
#>  9  22.8     4  141.    95  3.92  3.15  22.9     1     0     4     2
#> 10  19.2     6  168.   123  3.92  3.44  18.3     1     0     4     4
#> # … with 22 more rows
```
…
mtcars %>% 
  names()  # does the same thing. 
#>  [1] "mpg"  "cyl"  "disp" "hp"   "drat" "wt"   "qsec" "vs"   "am"   "gear"
#> [11] "carb"

mtcars %>% 
  names   # you can skip the () if no other inputs to the 'names' function are needed
#>  [1] "mpg"  "cyl"  "disp" "hp"   "drat" "wt"   "qsec" "vs"   "am"   "gear"
#> [11] "carb"

tib_mtcars %>% 
  select(mpg, disp, hp)
#> # A tibble: 32 x 3
#>      mpg  disp    hp
#>    <dbl> <dbl> <dbl>
#>  1  21    160    110
#>  2  21    160    110
#>  3  22.8  108     93
#>  4  21.4  258    110
#>  5  18.7  360    175
#>  6  18.1  225    105
#>  7  14.3  360    245
#>  8  24.4  147.    62
#>  9  22.8  141.    95
#> 10  19.2  168.   123
#> # … with 22 more rows

tib_mtcars %>% 
  select(starts_with('c'))
#> # A tibble: 32 x 2
#>      cyl  carb
#>    <dbl> <dbl>
#>  1     6     4
#>  2     6     4
#>  3     4     1
#>  4     6     1
#>  5     8     2
#>  6     6     1
#>  7     8     4
#>  8     4     2
#>  9     4     2
#> 10     6     4
#> # … with 22 more rows
…
